{
    "collection": {
        "item": [
            {
                "name": "Get Products",
                "request": {
                    "method": "GET",
                    "header": [],
                    "url": {
                        "raw": "backend:8081/products",
                        "protocol": "http",
                        "host": [
                            "backend"
                        ],
                        "port": "8081",
                        "path": [
                            "products"
                        ]
                    }
                },
                "response": []
            }
        ]
    },
    "environment": {},
    "globals": {},
    "iteratiions": [],
    "folders": []
}
